<?xml version="1.0" encoding="UTF-8"?>
<session version="1.0">
<refactoring comment="Move &apos;HelloWeb-servlet.xml&apos; to &apos;WEB-INF&apos;" description="Move &apos;HelloWeb-servlet.xml&apos; to &apos;WEB-INF&apos;" destination="WebContent/WEB-INF" element1="WebContent/HelloWeb-servlet.xml" flags="7" id="org.eclipse.ltk.core.refactoring.move.resources" resources="1" stamp="1528197716593" updateReferences="true"/>
</session>