127.0.0.1 - - [05/Jun/2018:16:33:18 +0530] "GET / HTTP/1.1" 404 994
0:0:0:0:0:0:0:1 - - [05/Jun/2018:16:33:18 +0530] "GET /HelloWeb/ HTTP/1.1" 404 992
0:0:0:0:0:0:0:1 - - [05/Jun/2018:16:33:18 +0530] "GET /favicon.ico HTTP/1.1" 404 1016
0:0:0:0:0:0:0:1 - - [05/Jun/2018:16:33:18 +0530] "GET /HelloWeb/ HTTP/1.1" 404 992
0:0:0:0:0:0:0:1 - - [05/Jun/2018:16:34:00 +0530] "GET /HelloWeb/ HTTP/1.1" 404 992
0:0:0:0:0:0:0:1 - - [05/Jun/2018:16:34:05 +0530] "GET / HTTP/1.1" 404 994
0:0:0:0:0:0:0:1 - - [05/Jun/2018:16:34:12 +0530] "GET /home HTTP/1.1" 404 1002
127.0.0.1 - - [05/Jun/2018:16:36:58 +0530] "GET / HTTP/1.1" 404 994
0:0:0:0:0:0:0:1 - - [05/Jun/2018:16:36:59 +0530] "GET /HelloWeb/ HTTP/1.1" 404 992
127.0.0.1 - - [05/Jun/2018:16:51:15 +0530] "GET / HTTP/1.1" 404 994
0:0:0:0:0:0:0:1 - - [05/Jun/2018:16:51:16 +0530] "GET /HelloWeb/ HTTP/1.1" 500 8704
127.0.0.1 - - [05/Jun/2018:16:52:48 +0530] "GET / HTTP/1.1" 404 994
0:0:0:0:0:0:0:1 - - [05/Jun/2018:16:52:49 +0530] "GET /HelloWeb/ HTTP/1.1" 404 992
0:0:0:0:0:0:0:1 - - [05/Jun/2018:16:53:15 +0530] "GET /HelloWeb/hello HTTP/1.1" 200 141
0:0:0:0:0:0:0:1 - - [05/Jun/2018:17:32:56 +0530] "GET /HelloWeb/student HTTP/1.1" 200 278
0:0:0:0:0:0:0:1 - - [05/Jun/2018:18:17:24 +0530] "GET / HTTP/1.1" 404 994
0:0:0:0:0:0:0:1 - - [05/Jun/2018:18:17:36 +0530] "GET /HelloWorldServlet/HelloWorld HTTP/1.1" 200 60
0:0:0:0:0:0:0:1 - - [05/Jun/2018:20:31:06 +0530] "GET /HelloWeb HTTP/1.1" 302 -
0:0:0:0:0:0:0:1 - - [05/Jun/2018:20:31:06 +0530] "GET /HelloWorldServlet/HelloWorld HTTP/1.1" 200 -
127.0.0.1 - - [05/Jun/2018:20:31:06 +0530] "GET / HTTP/1.1" 404 994
0:0:0:0:0:0:0:1 - - [05/Jun/2018:20:31:07 +0530] "GET /HelloWeb/ HTTP/1.1" 500 13081
0:0:0:0:0:0:0:1 - - [05/Jun/2018:20:31:15 +0530] "GET /HelloWeb/hello HTTP/1.1" 500 13081
0:0:0:0:0:0:0:1 - - [05/Jun/2018:20:43:32 +0530] "GET /HelloWeb/hello HTTP/1.1" 200 141
0:0:0:0:0:0:0:1 - - [05/Jun/2018:20:43:38 +0530] "GET /HelloWeb/student HTTP/1.1" 200 929
0:0:0:0:0:0:0:1 - - [05/Jun/2018:20:43:44 +0530] "POST /HelloWeb/addStudent HTTP/1.1" 200 434
