0:0:0:0:0:0:0:1 - - [06/Jun/2018:16:58:57 +0530] "GET /HelloWeb/student HTTP/1.1" 200 929
0:0:0:0:0:0:0:1 - - [06/Jun/2018:16:58:59 +0530] "GET /HelloWeb/student HTTP/1.1" 200 929
0:0:0:0:0:0:0:1 - - [06/Jun/2018:16:59:00 +0530] "GET /HelloWeb/student HTTP/1.1" 200 929
0:0:0:0:0:0:0:1 - - [06/Jun/2018:16:59:06 +0530] "POST /HelloWeb/addStudent HTTP/1.1" 400 1011
0:0:0:0:0:0:0:1 - - [06/Jun/2018:16:59:13 +0530] "POST /HelloWeb/addStudent HTTP/1.1" 200 440
0:0:0:0:0:0:0:1 - - [06/Jun/2018:17:00:50 +0530] "GET /HelloWeb/student HTTP/1.1" 200 929
0:0:0:0:0:0:0:1 - - [06/Jun/2018:17:00:55 +0530] "POST /HelloWeb/addStudent HTTP/1.1" 200 441
0:0:0:0:0:0:0:1 - - [06/Jun/2018:17:02:23 +0530] "GET /HelloWeb/student HTTP/1.1" 500 6682
0:0:0:0:0:0:0:1 - - [06/Jun/2018:17:03:47 +0530] "GET /HelloWeb/student HTTP/1.1" 200 1095
